[
  [
    0,
    {
      "lr": 0.02,
      "batch_size": 256
    }
  ],
  [
    0,
    {
      "lr": 0.03,
      "batch_size": 512
    }
  ],
  [
    1,
    {
      "lr": 0.04,
      "batch_size": 512
    }
  ]
]